﻿qst_feer_soldiers|[Confianza de los mercenarios]
qst_feer_soldiers_text|Puedes contratar caza-hombres del Maestro Guy en Zendar, y cada vez que elimine un grupo de bandidos como asaltantes marítimos, saqueadores o asaltantes negros Khergitas, habrá más caza-hombres disponibles.
qst_freedom_covenant|[Pacto de libertad]
qst_freedom_covenant_text|Tu coraje y justicia se han ganado la confianza de los guerreros de la libertad. Cada vez que elimines algún ejército oscuro y sus aliados, el Conde Arrasies te dará una "[ medalla de la caballería ]" o [medalla de valentía ]. Si tienes espadas a sueldo o caballería mercenaria en tu compañía, con esas medallas habla con el Maestro Guy y él los convertirá en grandes guerreros.
qst_hao_ling|[Gran comandante]
qst_tong_shuai|[Liderazgo superior]
qst_hunt_down_river_pirates|Dar caza a los piratas del río
qst_jiao_fei_2|Destruye a los asaltantes negros Khergitas
qst_ying_jiu|Rescata al lord prisionero
qst_jiao_fei|Cazar a los bandidos del bosque
qst_dark_killer|Aniquilar a los vengadores oscuros
qst_mainline_quest|[Misión principal]
qst_suker_collect_debt|Obtener el pago de Dranton
qst_look_for_the_lost_fire_spar|Busca la piedra de fuego para Robin
qst_find_oo_portraits|Busca los retratos para Shoey
qst_nomad_armor_collected|Recoge las armaduras para Alix